%YAML 1.1
%TAG !u! tag:unity3d.com,2011:
--- !u!1045 &1
EditorBuildSettings:
  m_ObjectHideFlags: 0
  serializedVersion: 2
  m_Scenes:
  - enabled: 1
    path: Assets/Scenes/Title.unity
    guid: 18dabc6ad8ced2f46bc867ce5748e7ea
  - enabled: 1
    path: Assets/Scenes/shooting_game.unity
    guid: 291a4721d5fe9ad45b8749cc12b08b81
  m_configObjects: {}
